{"_links":{"last":{"href":"https://api.fit-pay.com/users/d056730c-3dea-4146-a727-c12698509e75/creditCards/30913a66-66f3-4634-93d5-597b5b6a12e2/transactions?limit=10&offset=10"},"next":{"href":"https://api.fit-pay.com/users/d056730c-3dea-4146-a727-c12698509e75/creditCards/30913a66-66f3-4634-93d5-597b5b6a12e2/transactions?limit=10&offset=10"},"self":{"href":"https://api.fit-pay.com/users/d056730c-3dea-4146-a727-c12698509e75/creditCards/30913a66-66f3-4634-93d5-597b5b6a12e2/transactions?limit=10&offset=0"}},"limit":10,"offset":0,"totalResults":11,"results":[{"_links":{"self":{"href":"https://api.fit-pay.com/users/d056730c-3dea-4146-a727-c12698509e75/creditCards/30913a66-66f3-4634-93d5-597b5b6a12e2/transactions/5341aab9-ed0a-44f2-8888-9c8500af8ee4"}},"transactionId":"5341aab9-ed0a-44f2-8888-9c8500af8ee4","transactionType":"PURCHASE","amount":616.53,"currencyCode":"CHF","authorizationStatus":"APPROVED","transactionTime":"2018-06-12T12:23:01.513Z","transactionTimeEpoch":1528806181513,"merchantName":"HabitasseôImperdiet PlaceratôTempus Non ElitéAt Cursus MaurisôMollis Lectus Montes NisléFacilisi ","merchantType":"Unknown"},{"_links":{"self":{"href":"https://api.fit-pay.com/users/d056730c-3dea-4146-a727-c12698509e75/creditCards/30913a66-66f3-4634-93d5-597b5b6a12e2/transactions/4178ec7b-1942-4e79-bd90-1a6883c94506"}},"transactionId":"4178ec7b-1942-4e79-bd90-1a6883c94506","transactionType":"PURCHASE","amount":553.73,"currencyCode":"EGP","authorizationStatus":"APPROVED","transactionTime":"2018-06-08T07:00:58.899Z","transactionTimeEpoch":1528441258899,"merchantName":"","merchantType":"Unknown"},{"_links":{"self":{"href":"https://api.fit-pay.com/users/d056730c-3dea-4146-a727-c12698509e75/creditCards/30913a66-66f3-4634-93d5-597b5b6a12e2/transactions/d8c6eb45-e990-4290-8033-e86c23899c7a"}},"transactionId":"d8c6eb45-e990-4290-8033-e86c23899c7a","transactionType":"PURCHASE","amount":796.0,"currencyCode":"CHF","authorizationStatus":"APPROVED","transactionTime":"2018-06-04T08:11:33.331Z","transactionTimeEpoch":1528099893331,"merchantName":"Rutrum Sociis Maecenas Ridiculus SitéPharetra ","merchantType":"Unknown"},{"_links":{"self":{"href":"https://api.fit-pay.com/users/d056730c-3dea-4146-a727-c12698509e75/creditCards/30913a66-66f3-4634-93d5-597b5b6a12e2/transactions/a4c8f15b-5035-451d-b79d-46c3710144c3"}},"transactionId":"a4c8f15b-5035-451d-b79d-46c3710144c3","transactionType":"PURCHASE","amount":586.93,"currencyCode":"EUR","authorizationStatus":"APPROVED","transactionTime":"2018-06-03T20:27:16.115Z","transactionTimeEpoch":1528057636115,"merchantName":"DictumstéNam Habitant Dui Tincidunt Luctus Fames Metus ","merchantType":"Unknown"},{"_links":{"self":{"href":"https://api.fit-pay.com/users/d056730c-3dea-4146-a727-c12698509e75/creditCards/30913a66-66f3-4634-93d5-597b5b6a12e2/transactions/e82ce622-099c-4a31-abd7-f1cf62c4489a"}},"transactionId":"e82ce622-099c-4a31-abd7-f1cf62c4489a","transactionType":"PURCHASE","amount":42.25,"currencyCode":"CNY","authorizationStatus":"APPROVED","transactionTime":"2018-06-01T10:17:37.811Z","transactionTimeEpoch":1527848257811,"merchantName":"Nibh Parturient Inceptos SagittisâMagnis Rhoncus Nam TempuséAliquam ","merchantType":"Unknown"},{"_links":{"self":{"href":"https://api.fit-pay.com/users/d056730c-3dea-4146-a727-c12698509e75/creditCards/30913a66-66f3-4634-93d5-597b5b6a12e2/transactions/8d8eb511-423e-4f78-ad3e-47b7b7adf1c9"}},"transactionId":"8d8eb511-423e-4f78-ad3e-47b7b7adf1c9","transactionType":"PURCHASE","amount":347.03,"currencyCode":"CAD","authorizationStatus":"APPROVED","transactionTime":"2018-05-30T03:19:28.723Z","transactionTimeEpoch":1527650368723,"merchantName":"Euismod Mattis NecéAmet Sollicitudin Proin Facilisi Mi ConsecteturéClass Amet ","merchantType":"Unknown"},{"_links":{"self":{"href":"https://api.fit-pay.com/users/d056730c-3dea-4146-a727-c12698509e75/creditCards/30913a66-66f3-4634-93d5-597b5b6a12e2/transactions/272adb30-3111-49fa-894d-7789a2f39941"}},"transactionId":"272adb30-3111-49fa-894d-7789a2f39941","transactionType":"PURCHASE","amount":118.39,"currencyCode":"EGP","authorizationStatus":"APPROVED","transactionTime":"2018-05-30T01:23:15.411Z","transactionTimeEpoch":1527643395411,"merchantName":"Etiam Mattis Sem Velit Etiam ","merchantType":"Unknown"},{"_links":{"self":{"href":"https://api.fit-pay.com/users/d056730c-3dea-4146-a727-c12698509e75/creditCards/30913a66-66f3-4634-93d5-597b5b6a12e2/transactions/897736cf-40a9-4e49-b8e1-c25b855236b1"}},"transactionId":"897736cf-40a9-4e49-b8e1-c25b855236b1","transactionType":"PURCHASE","amount":826.68,"currencyCode":"CNY","authorizationStatus":"APPROVED","transactionTime":"2018-05-29T10:17:12.531Z","transactionTimeEpoch":1527589032531,"merchantName":"BlanditâMalesuada Pulvinar LigulaéPotenti Aenean Sem Id DiamâTorquent LaciniaôPosuere Inceptos ","merchantType":"Unknown"},{"_links":{"self":{"href":"https://api.fit-pay.com/users/d056730c-3dea-4146-a727-c12698509e75/creditCards/30913a66-66f3-4634-93d5-597b5b6a12e2/transactions/e450e5b6-452c-43db-a6a2-908f880b0963"}},"transactionId":"e450e5b6-452c-43db-a6a2-908f880b0963","transactionType":"PURCHASE","amount":898.61,"currencyCode":"EGP","authorizationStatus":"APPROVED","transactionTime":"2018-05-28T02:56:15.059Z","transactionTimeEpoch":1527476175059,"merchantName":"HabitasseôSagittis ","merchantType":"Unknown"},{"_links":{"self":{"href":"https://api.fit-pay.com/users/d056730c-3dea-4146-a727-c12698509e75/creditCards/30913a66-66f3-4634-93d5-597b5b6a12e2/transactions/b06129ef-a4bf-480e-bcf3-f3344a1f6575"}},"transactionId":"b06129ef-a4bf-480e-bcf3-f3344a1f6575","transactionType":"PURCHASE","amount":134.39,"currencyCode":"JPY","authorizationStatus":"APPROVED","transactionTime":"2018-05-21T06:04:55.891Z","transactionTimeEpoch":1526882695891,"merchantName":"Sodales Eu Consequat Consectetur Imperdiet Taciti ","merchantType":"Unknown"}]}
